%YAML 1.1
%TAG !u! tag:unity3d.com,2011:
--- !u!114 &11400000
MonoBehaviour:
  m_ObjectHideFlags: 0
  m_CorrespondingSourceObject: {fileID: 0}
  m_PrefabInstance: {fileID: 0}
  m_PrefabAsset: {fileID: 0}
  m_GameObject: {fileID: 0}
  m_Enabled: 1
  m_EditorHideFlags: 0
  m_Script: {fileID: 11500000, guid: 4baa03deefbdb8a449756c8b66c26ed7, type: 3}
  m_Name: Pickless_TB
  m_EditorClassIdentifier: 
  models:
  - {fileID: 11400000, guid: f2a174255da6c944998492e65542d298, type: 2}
  - {fileID: 11400000, guid: 2b5582ad7f274f746945dbd101e08a3f, type: 2}
  - {fileID: 11400000, guid: 3389c60c63969b44eb821a929c6832a4, type: 2}
  - {fileID: 11400000, guid: 2b7174e19674194448fbcb8bab966acc, type: 2}
  pickupPaticlesPrefab: {fileID: 100004, guid: 757df604761b8ef42831192c70ee1099, type: 3}
  sprite: {fileID: 21300000, guid: 1f3800f79b39dd84aa25f985117791a3, type: 3}
  empty: {fileID: 21300000, guid: 0b05fe4ad3481cc4fb409c7f22b5580b, type: 3}
  type: 3
  prefab: {fileID: 348100201697430780, guid: efefff6b43068f344a7ed060c89c6726, type: 3}
  speed: 5
  points: 10
  positions:
  - {x: 0, y: 2, z: 0}
  - {x: 0, y: -2, z: 0}
