%YAML 1.1
%TAG !u! tag:unity3d.com,2011:
--- !u!114 &11400000
MonoBehaviour:
  m_ObjectHideFlags: 0
  m_CorrespondingSourceObject: {fileID: 0}
  m_PrefabInstance: {fileID: 0}
  m_PrefabAsset: {fileID: 0}
  m_GameObject: {fileID: 0}
  m_Enabled: 1
  m_EditorHideFlags: 0
  m_Script: {fileID: 11500000, guid: ab8e55f0bc3431446b67033ef9ec1f5f, type: 3}
  m_Name: Pickless_ALL
  m_EditorClassIdentifier: 
  models:
  - {fileID: 11400000}
  - {fileID: 11400000, guid: 2b5582ad7f274f746945dbd101e08a3f, type: 2}
  - {fileID: 11400000, guid: 4bf1e06c43b90bf4c82806222be493ac, type: 2}
  - {fileID: 11400000, guid: f2a174255da6c944998492e65542d298, type: 2}
  - {fileID: 11400000, guid: 536557b84f4a4a64f8fddca7ef4f5d52, type: 2}
  - {fileID: 11400000, guid: 088f519f45d4cf64b87ce7f553848455, type: 2}
  - {fileID: 11400000, guid: a58f6906f8d21b14cbb81acf55ce6923, type: 2}
  - {fileID: 11400000, guid: b059937bdba22cc4e9206af6b3380b7b, type: 2}
  - {fileID: 11400000, guid: 1b2a44aec72b05c4aabfcc4eb9ce37e9, type: 2}
  pickupPaticlesPrefab: {fileID: 100006, guid: 8fc06027b01064e4f885fd8dd2929310, type: 3}
  sprite: {fileID: 21300000, guid: ecf9b941a09dfae449d4b79ef7e4a5c0, type: 3}
  empty: {fileID: 21300000, guid: 2c029025f8529e84fbef98f8543cf2d9, type: 3}
  type: 6
  prefab: {fileID: 348100201697430780, guid: efefff6b43068f344a7ed060c89c6726, type: 3}
  speed: 5
  points: 20
  positions:
  - {x: 2, y: 2, z: 0}
  - {x: 0, y: 2, z: 0}
  - {x: -2, y: 2, z: 0}
  - {x: 2, y: 0, z: 0}
  - {x: -2, y: 0, z: 0}
  - {x: 2, y: -2, z: 0}
  - {x: 0, y: -2, z: 0}
  - {x: -2, y: -2, z: 0}
